<?xml version="1.0" encoding="UTF-8" standalone="no"?>
<svg
   width="288.93991"
   height="178.6593"
   viewBox="0 0 288.93991 178.6593"
   version="1.1"
   xml:space="preserve"
   style="clip-rule:evenodd;fill-rule:evenodd;stroke-linejoin:round;stroke-miterlimit:1.41421"
   id="svg19"
   xmlns="http://www.w3.org/2000/svg"
   xmlns:svg="http://www.w3.org/2000/svg"
   xmlns:rdf="http://www.w3.org/1999/02/22-rdf-syntax-ns#"
   xmlns:cc="http://creativecommons.org/ns#"
   xmlns:dc="http://purl.org/dc/elements/1.1/"><metadata
   id="metadata25"><rdf:RDF><cc:Work
       rdf:about=""><dc:format>image/svg+xml</dc:format><dc:type
         rdf:resource="http://purl.org/dc/dcmitype/StillImage" /></cc:Work></rdf:RDF></metadata><defs
   id="defs23">&#10;            &#10;            &#10;            &#10;        &#10;            &#10;        </defs>&#10;    <g
   transform="matrix(0.598566,0,0,0.598566,-78.224807,-25.189982)"
   id="g17">&#10;        <path
   id="path2"
   style="fill:#c5247f;fill-opacity:1;fill-rule:nonzero;stroke-width:0.691491"
   d="m 261.96386,122.95376 c 14.66099,-46.840913 58.42891,-80.869876 110.08329,-80.869876 51.65438,0 95.4223,34.028963 110.08399,80.869876 v 0 l 6.9e-4,0.003 c 0.37548,1.19974 0.7316,2.40777 1.06835,3.62341 16.36137,49.59512 84.91648,30.40625 84.91648,30.40625 l 45.29059,116.99198 -171.99733,66.58436 -29.07719,-75.10906 -0.1224,0.0456 -16.09514,-41.94031 c 1.22255,-0.46883 2.42575,-0.97223 3.60889,-1.50745 5.29959,-2.57926 9.91045,-5.43028 13.91695,-8.47699 10.92348,-8.63949 18.93855,-20.511 22.86,-33.89205 5.61698,-21.69207 -1.29516,-41.48876 -1.49086,-42.04196 -9.53704,-25.53814 -34.27098,-43.926962 -62.96302,-43.926962 -28.69203,0 -53.42598,18.388822 -62.96233,43.926962 -0.19569,0.55181 -7.10853,20.3492 -1.49085,42.04196 3.92144,13.38105 11.93582,25.25256 22.86,33.89205 4.00581,3.04671 8.61736,5.89773 13.91695,8.47699 1.18314,0.53522 2.38633,1.03862 3.60889,1.50745 l -0.0526,0.13692 c 0,0 -16.04328,41.80339 -16.04328,41.80339 l -0.12239,-0.0456 -29.07651,75.10906 L 130.68702,273.9784 175.9776,156.98642 c 0,0 68.55511,19.18887 84.91648,-30.40625 0.33676,-1.21564 0.69357,-2.42367 1.06905,-3.62341 z" />&#10;        &#10;    </g>&#10;</svg>
